1503	London Bridge	200003494567	Coburg House, 63-67 Newington Causeway, London	SE1 6LS
1506	North Kensington	217119338	Unit 308 - 312, Quayside House, Kensal Road, London	W10 5BE
1509	St Marylebone	10033548864	46 Lisson Grove, Marylebone, London	NW1 6TZ
1511	Hackney	100023013910	271 Mare Street, Hackney, London	E8 1EE
1512	Finsbury Park		52-53 Medina Road, Finsbury Park, London	N7 7JY
1514	Barnsbury	5300006487	1 Barnsbury Road, Islington 	N1 0EX
1516	Aldershot	100062646337	South Western House, Station Road, Aldershot	GU11 1HP
1517	Poplar	6143302	13 Dod Street, Poplar, London	E14 7EP
1519	Hoxton	100023135571	30 Drysdale Street, London 	N1 6LT
1522	Fulham	34106626	Waterford Road, London 	SW6 2DL
1524	Woolwich	100023245431	50 Wellington Street, Woolwich, London	SE18 6PY
1529	Harlesden	202085916	161 High Street, Harlesden House, Harlesden, London	NW10 4TL
1532	Enfield	207137419	34 Windmill Hill, Enfield, Middlesex	EN2 7AL
1533	Finchley	200219316	40-44 Ballards Lane, Finchley, London	N3 2BL
1535	Hayes	100023417044	Adam House, 818-820 Uxbridge Road, Hayes, Middlesex	UB4 0RS
1536	Hendon	200220256	10 Finchley Lane, Hendon, London	NW4 1DP
1537	Hounslow		10 Montague Road, Hounslow, Middlesex	TW3 1LL
1539	Staines	33036453	62 London Road, Staines, Middlesex	TW18 4HB
1540	Tottenham	10091942782	640-656 High Road, Tottenham, London	N17 0AA
1541	Uxbridge	10009945089	Senator Court, Belmont Road, Uxbridge, Middlesex	UB8 1DP
1542	Andover	200000710896	Test Valley Borough Council, Beech Hurst, Weyhill Road, Andover	SP10 3AJ
1543	Willesden	202018022	Neasden Lane, Willesden, London	NW10 2XH
1544	Wood Green	100023178278	Granta House, 1 Western Road, London	N22 6UU
1549	Edmonton	207177296	112-116 Fore Street, Edmonton, London	N18 2XA
1555	Peckham	200003394818	24-26 Peckham High Street, Peckham, London	SE15 5DS
1557	Thornton Heath	100022915968	72 High Street, Thornton Heath, Surrey	CR7 8YY
1558	Palmers Green	207176263	28 Aldermans Hill, Palmers Green 	N13 4PN
1560	Kentish Town	5123975	174-178 Kentish Town Road, Kentish Town, London	NW5 2AG
1563	Banbury	10011910018	Crown Buildings, Southam Road, Banbury	OX16 2EX
1566	Forest Hill	100023255647	32-34 Dartmouth Road, Forest Hill, LONDON	SE23 3XU
1567	Purley	100023641854	24 Whytecliffe Road South, Purley, Surrey	CR8 2YU
1568	Acton	12152529	Armstrong Road, Acton, London	W3 7JL
1570	Colchester	100091467529	40 Chapel Street South, Colchester, Essex	CO2 7AZ
1571	Ealing	12113754	86-92 Uxbridge Road, West Ealing, London	W13 8RA
1573	Wembley	202047728	6 St Johns Road, Wembley, Middlesex	HA9 7JD
1580	Braintree	10006914422	The Old Post Office, Fairfield Road, Braintree, Essex	CM7 3HA
1581	Brentwood	100091433831	Fairfield House, Fairfield Road, Brentwood, Essex	CM14 4SB
1584	Chelmsford	200004624834	The Gemini Centre, 88 New London Road, Chelmsford, Essex	CM2 0PD
1585	Clacton	100091463456	55 Station Road, Clacton On Sea, Essex	CO15 1RS
1589	Harlow	100091442754	Beaufort House, Crown Gate, Essex	CM20 1NA
1590	Harwich	100091630482	164-168 High Street, Dovercourt, Harwich, Essex	CO12 3AT
1593	Basildon	10013346310	The Basildon Centre, St Martin’s Square, Basildon, Essex	SS14 1FT
1594	Rayleigh	100091598478	10 London Hill, Rayleigh 	SS6 7HR
1596	Southend	10091842408	Dencora Court, Tylers Avenue, Southend-On-Sea	SS1 2AP
1598	Borehamwood	10034169459	Elstree Way, Borehamwood, Herts	WD6 1JR
1601	Canvey Island	10004934789	140 Furtherwick Road, Canvey Island, Essex	SS8 7AL
1602	Redbridge	10023769855	Dunne House,564-570 High Road, Seven Kings, Seven Kings	IG3 8EJ
1604	Farnborough	200001815425	Princeton House, 1-5 Victoria Road, Farnborough, Hampshire	GU14 7NT
1606	Grays	100091538725	2 Derby Road, Grays, Essex	RM17 6QQ
1611	Barking	100100684	12 - 14 Wakering Road, Barking, Essex	IG11 8QB
1612	Gosport	37033068	1 Walpole Road, Gosport 	PO12 1RR
1617	Havant	100062457205	2 Elmleigh Road, Havant, Hants	PO9 2AR
1619	Leytonstone	100022959187	1 Lemna Road, Leytonstone, London	E11 1JJ
1621	Stratford	46250398	Employment Service, 1 Tramway Avenue, London	E15 4PN
1629	Stockwell	200000458892	Jebb House, 155-157 Clapham Road, London	SW9 0QQ
1631	Mitcham	10091767454	317 - 321 London Road, Mitcham, Surrey	CR4 4YF
1636	Romford	100023211637	30 Main Road, Romford, Essex	RM1 3HH
1639	Walthamstow	100022983039	7-13 Westbury Road, Walthamstow 	E17 6RH
1649	Barnet	200204941	Raydean House, 2Nd Floor, 15-17 Western Parade, Barnet, Herts	EN5 1AH
1666	Hemel Hempstead	100081165300	Government Building, 1 Waterhouse Street, Hemel Hempstead, Hertfordshire	HP1 1EX
1669	Hythe	100062534043	15/17 Pylewell Road, Hythe, Southampton	SO45 6ZL
1672	St Albans	10024115151	6 Bricket Road, St Albans, Hertfordshire	AL1 3JU
1673	Watford	100081284238	60 Exchange Road, Watford, Herts	WD18 0JJ
1675	Hatfield	10014210263	Salisbury Square, Old Hatfield, Herts	AL9 5AF
1676	Letchworth	100081258138	The Peoples House, 2 Station Road, Letchworth, Garden City, Hertfordshire	SG6 3AZ
1677	Newport Isle of Wight	10090466523	Broadlands House, Staplers Road, Newport, Isle of Wight	PO30 2HX
1682	Shepherds Bush	34136575	176-180 Uxbridge Road, Shepherds Bush, London	W12 7JP
1683	Alton	1710105079	1 - 3 Butts Road, Alton, Hampshire	GU34 1LH
1684	Kennington Park	100023229216	206-210 Kennington Park Road, London 	SE11 4DE
1685	Portsmouth	1775114125	Old Canal House, 27 Arundel Street, Portsmouth, Hampshire	PO1 1NB
1687	Oxford	200004682490	7 Worcester Street, Oxford 	OX1 2BX
1691	Ryde	100062429028	150 High Street, Ryde, Isle Of Wight	PO33 2RE
1694	Stevenage		38-44 The Forum, Stevenage, Herts	SG1 1EZ
1697	Waltham Cross	10091906744	235 High Street, Waltham Cross, Herts	EN8 7BA
1698	Winchester	10024209356	City Gate, 8 City Road, Winchester	SO23 8GA
1699	Witney	100121319809	Unit A, 2 Rivers Trading Est., Station Lane, Witney, Oxon	OX28 4JA
1701	Canning Town	10008987982	197 Freemasons Road, Canning Town, London	E16 3PD
1704	Basingstoke	10008486354	Crown Buildings, Winchester Road, Basingstoke, Hampshire	RG21 8ES
1707	Eastleigh	100062535137	Capital House, 100 Southampton Road, Eastleigh, Hampshire	SO50 5PB
1708	Loughton	10013926677	284 High Road, Loughton 	IG10 1RH
1710	Camberley	10002670464	Surrey Heath House,  Knoll Road, Camberley, Surrey	GU15 3HH
1712	Lymington	10013631440	Cannon Court, Lymington, Hants	SO41 9AQ
1715	Guildford	200002883830	86 - 88 Woodbridge Road, Guildford, Surrey	GU1 4QD
1718	Redhill	68100710	15 London Road, Redhill, Surrey	RH1 1BQ
1719	Weybridge	100062360180	Monument Hill, Weybridge, Surrey	KT13 8RX
1720	Woking	10091796174	Civic Office, Gloucester Square, Woking	GU21 6AR
1729	Croydon	10014056274	17-21 Dingwall Road, Croydon, Surrey	CR9 2TN
1730	Epsom	100062364798	50 East Street, Epsom 	KT17 1HQ
1731	Kingston	10091802492	Guildhall 2, High Street, Kingston-upon-Thames	KT1 1EU
1732	Sutton	5870038112	348 High Street, Sutton, Surrey	SM1 1PX
1733	Twickenham	10002266961	59-63 London Road, Twickenham, Middlesex	TW1 3SZ
1735	Wandsworth	10091874388	Jessica House, Red Lion Square, 191 Wandsworth High Street, London	SW18 4LS
1744	Fareham	100062408022	Crown Buildings, Civic Way, Fareham, Hants	PO16 7HR
1745	Witham	100091620585	2-3 Freebournes Court, Newland Street, Witham, Essex	CM8 2BL
1748	Hastings	100062575413	149-159 London Road, St Leonards, Hastings, East Sussex	TN37 6LJ
1755	Hertford	10033100087	12-14 Parliament Square, Hertford, Hertfordshire	SG14 1EF
1757	Bracknell		Fitzwilliam House, Skimped Hill Lane, Bracknell, Berkshire	RG12 1JX
1758	Didcot	100121303096	130 Broadway, Didcot 	OX11 8DB
1760	Maidenhead	100081274168	3 Park Street, Maidenhead, Berkshire	SL6 1SP
1761	Newbury	100081225871	Cromwell House, 22 Oxford Street, Newbury, Newbury	RG14 1JB
1763	Reading	310062732	Adelphi House, Friar Street, Reading	RG1 1HD
1769	Southampton	100062501824	St Cross House, 18 Bernard Street, Southampton, Hants	SO14 3PJ
1773	Abingdon	100121312772	Torus House, 38-44 Stert Street, Abingdon	OX14 3QS
1775	Aylesbury	766254168	Sunley House, Oxford Road, Aylesbury, Buckinghamshire	HP19 8EZ
1778	Chesham	100081184314	31 Red Lion Street, Chesham, Buckinghamshire	HP5 1LD
1780	High Wycombe	100081168799	80 Oxford Road, High Wycombe, Buckinghamshire	HP11 2DN
1783	Streatham	100023320218	Crown House, Station Approach, Streatham, London	SW16 6HW
1784	Slough	100081262400	2A Yew Tree Road, Slough, Berkshire	SL1 2AQ
1786	Milton Keynes	25043457	499 Midsummer Blvd, Central Milton Keynes 	MK9 3BN
1791	Bexhill	100062634146	41 St Leonards Road, Bexhill-On-Sea, East Sussex	TN40 1HS
1792	Bognor Regis	100062416490	Gloucester House, High Street, Bognor Regis, Sussex	PO21 1HH
1793	Brighton	22224669	Windsor House, 30-35 Edward Street, Brighton, East Sussex	BN2 0LN
1795	Chichester	100062410705	5 Southgate, Chichester, West Sussex	PO19 8EH
1796	Crawley		Gresham House, 20-22 Station Road, Crawley, West Sussex	RH10 1EZ
1797	Hove	22009274	Boundary Road, Hove, East Sussex	BN3 7GA
1798	Eastbourne	10010654180	St Annes House, 2 St Annes Road, Eastbourne, East Sussex	BN21 3XX
1802	Haywards Heath	100062484676	Kingsley House, 31 Boltro Road, Haywards Heath, West Sussex	RH16 1BP
1803	Horsham	100062476616	Marlborough House, 50 East Street, Horsham	RH12 1HN
1804	Lewes	10033260740	Mountfield Road, Lewes, East Sussex	BN7 2XR
1805	Littlehampton	100062237021	33 Church Street, Littlehampton, West Sussex	BN17 5ER
1807	Newhaven	100062275994	55 High Street, Newhaven, East Sussex	BN9 9PA
1812	Worthing	100062226898	Crown House, High Street, Worthing, Sussex	BN11 1NG
1820	Ashford		International House, Dover Place, Ashford, Kent	TN23 1HT
1822	Canterbury	200000678081	Northgate House, 115-120 Northgate, Canterbury, Kent	CT1 1EZ
1823	Chatham	44038469	Crown House, The Brook, Chatham, Kent	ME4 4LQ
1825	Dartford	100062308137	61 Lowfield Street, Dartford, Kent	DA1 1JY
1827	Dover	100062288491	72-75 Maison Dieu Road, Dover, Kent	CT16 1NN
1829	Folkestone	10091768091	Palting House, Trinity Road, Folkestone, Kent	CT20 2RH
1831	Gravesend	100062311366	44-46 The Grove, Gravesend, Kent	DA12 1DF
1834	Maidstone	200003654884	County Gate 1, Staceys Street, Maidstone, Kent	ME14 1ST
1835	Margate	100062627599	Mill House, Mill Lane, Margate	CT9 1LB
1836	Ramsgate	100062283044	Queens Street, Ramsgate, Kent	CT11 9EW
1839	Sheerness	10023196502	3 Millennium Way, Sheerness 	ME12 1PD
1840	Sittingbourne	100062376269	9 Roman Square, Sittingbourne 	ME10 4BP
1842	Tonbridge	100062594129	Crown Building, Bradford Street, Tonbridge, Kent	TN9 1DU
1850	Cosham	1775038266	Wynnstay House, 121 High Street, Cosham	PO6 3DR
1865	Harrow	200004438592	Clarendon Road, Harrow, Middlesex	HA1 1YJ
1873	Biggleswade	100081252533	73 High Street, Biggleswade, Beds	SG18 0JH
1874	Dunstable	100081195955	Watling House, High Street North, Dunstable, Bedfordshire	LU6 1LF
1875	Leighton Buzzard	10091811832	Bossard House, West Street, Leighton Buzzard, Bedfordshire	LU7 1DA
1880	Luton	100081189525	Cheviot House, 55 Guilford Street, Luton	LU1 2ER
1881	Bedford	10033186672	Wyvern House, 53-57 Bromham Road, Bedford	MK40 2EH
1885	Bexleyheath	100022922349	186-194 Broadway, Bexleyheath, Kent	DA6 7BB
1886	Bromley	10091905420	Unicorn House, 28 Elmfield Road, Bromley, Kent	BR1 1NX
2543	Cromer	10034808413	North Norfolk District Council Offices, Holt Road, Cromer, Norfolk	NR27 9EN
2544	Dereham	10091821859	Breckland District Council Offices, Elizabeth House, Walpole Loke, Norfolk	NR19 1EE
2545	Diss	2630155562	Church Street, Diss, Norfolk	IP22 4AX
2547	Fakenham	10091821352	Fakenham Connect, Oak Street, Fakenham, Norfolk	NR21 9DY
2548	Great Yarmouth	10023462534	Copperfield House, The Conge, Great Yarmouth, Norfolk	NR30 1EJ
2552	King’s Lynn	10091948888	Kings Lynn & West Norfolk Borough Council, Kings Court, Chapel Street, Kings Lynn	PE30 1EX
2554	North Walsham	100091559210	Gpo Buildings, 10 Kings Arms Street, North Walsham, Norfolk	NR28 9JX
2555	Norwich	200004364086	Kiln House, Pottergate, Norwich	NR2 1BZ
2558	Thetford	10011955089	Breckland District Council, St Nicholas Street, Thetford, Norfolk	IP24 2BT
2742	Ely	10002593207	52 Market Street, Ely  	CB7 4LU
2743	Cambridge	200004162660	Henry Giles House, 73 - 79 Chesterton Road, Cambridge, Cambridgeshire	CB4 3BQ
2744	Wisbech	100091512912	Albion House, Albion Place, Wisbech	PE13 1AN
2752	Huntingdon	10091827040	2-6 Hartford Road, Huntingdon 	PE29 3PB
2756	Peterborough	100091509412	Clifton House, 84 Broadway, Peterborough	PE1 1QZ
2760	Beccles	100091571406	1-5 Hungate Court, Hungate, Beccles, Suffolk	NR34 9TR
2763	Bury St Edmunds	10009744626	St Andrews House, St Andrews Street North, Bury St Edmunds, Suffolk	IP33 1TT
2766	Felixstowe	100091484362	29-31 Hamilton Road, Felixstowe, Suffolk	IP11 7AZ
2770	Haverhill	10009740365	St.Edmundsbury Council, Haverhill House, Lower Downs Slade, Haverhill, Suffolk	CB9 9EE
2772	Ipswich	100091481958	Silent Street, Ipswich, Suffolk	IP1 1TF
2773	Leiston	10090647361	Leiston Enterprise Centre, Eastlands Ind Estate, Leiston, Suffolk	IP16 4US
2774	Lowestoft	100091566894	Rishton House, Level 1, Clapham Road South, Lowestoft	NR32 1RL
2775	Newmarket	100091634652	Wellington Street, Newmarket, Suffolk	CB8 0WJ
2776	Mildenhall	100091500227	Forest Heath District Council, College Heath Road, Mildenhall, Suffolk	IP28 7EY
2778	Stowmarket	100091488330	49 Ipswich Street, Stowmarket, Suffolk	IP14 1AN
2779	Sudbury	100091457845	21 Borehamgate Precinct, Sudbury, Suffolk	CO10 2EG
2781	Woodbridge	100091485776	59 Thoroughfare, Woodbridge, Suffolk	IP12 1AJ
3504	Ringwood	100062213366	20-22 Southampton Road, Ringwood, Hampshire	BH24 1HY
3505	Shirehampton	259740	31-32 High Street, Shirehampton, Bristol	BS11 0DX
3540	Bodmin	100041163121	71A Fore Street, Bodmin 	PL31 2JB
3541	Bude	100041134921	Summerleaze Crescent, Bude, Cornwall	EX23 8BT
3545	Penryn & Falmouth	100041022390	Penmarin House, Commercial Road, Penryn, Cornwall	TR10 8SB
3548	Helston	100041207186	Helston Library, Trengrouse Way, Helston	TR13 8AG
3549	Launceston	100041154371	11 Tower Street, Launceston, Cornwall	PL15 8BQ
3550	Liskeard	10094082786	Luxstowe House, Greenbank Road, Liskeard	PL14 3DL
3551	Newquay	100041216794	32 East Street, Newquay 	TR7 1BY
3552	Penzance		Branwell House, Clarence Street, Penzance, Cornwall	TR18 2NP
3554	Redruth	10013623421	Piran House, Nettells Hill, Redruth	TR15 1JN
3555	St Austell	100041031094	Treleaven House, St Austell, Cornwall	PL25 5TY
3562	Truro	100041204013	Lemon Quay, Truro, Cornwall	TR1 2PU
3572	Barnstaple	10091209889	Princess House, Queen Street, Barnstaple, Devon	EX32 8HD
3573	Bideford	10090289659	Northbank House, North Road, Bideford	EX39 2NR
3575	Brixham	10093139425	Decca House, 28 New Road, Brixham, Devon	TQ5 8NQ
3579	Exeter	100041046430	Clarendon House, Western Way, Exeter, Devon	EX1 2DA
3580	Devonport	100041156548	Queens House, St Levan Road, Devonport	PL2 3BD
3583	Honiton	100041043132	128 High Street, Honiton 	EX14 1JP
3588	Newton Abbott	10032966626	Forde House, Brunel Road, Newton Abbot	TQ12 4FS
3592	Plymouth	10012060174	Old Tree Court, Exeter Street, Plymouth, Devon	PL4 0AJ
3598	Tiverton	10093533925	Phoenix House, Phoenix Lane, Tiverton	EX16 6FF
3599	Torquay	10000010284	Regal House, Castle Circus, Devon, Torquay	TQ1 3JQ
3601	Totnes	10093769588	Follaton House, Plymouth Road, Totnes	TQ9 5EZ
3605	Bournemouth	10014277417	1 Cotlands Road, Bournemouth 	BH1 3BG
3681	Bath	10001134646	Somerset Street, Bath 	BA1 1TS
3682	Bridgwater	100041066707	Northgate, Bridgwater, Somerset	TA6 3HJ
3686	Clevedon	10091894680	Ground Floor, Castlewood, Tickenham Road, Clevedon	BS21 6FW
3689	Frome	250063440	9-10 Kingsway Precinct, Frome, Somerset	BA11 1QW
3696	Minehead	200003159267	17 The Avenue, Minehead, Somerset	TA24 5XZ
3701	Taunton		35-36 High Street, Taunton, Somerset	TA1 3NY
3704	Wells	250015115	46 Chamberlain Street, Wells, Somerset	BA5 2PJ
3705	Weston Super Mare	24001760	Regent House, High Street 	BS23 1JH
3706	Yeovil	100041073284	Federated House, 29/31 Henford, Yeovil, Somerset	BA20 1UU
3737	Cheltenham	100121230716	7 North Street, Cheltenham 	GL50 4DJ
3738	Bristol Temple Street	370264	100 Temple Street, Bristol	BS1 6AG
3739	Bedminster	125667	17-19 Kent Street, Bedminster, Bristol	BS3 3NW
3746	Cirencester		Jobcentre Plus Council Offices, Trinity Road, Cirencester, Gloucester	GL7 1TE
3747	Coleford	100121368777	Forest of Dean District Council Offices, High Street, Coleford	GL16 8FG
3749	Gloucester	100121373099	Spa Road, Gloucester 	GL1 1XL
3751	Kingswood	516235	382-386 Two Mile Hill Road, Kingswood, Bristol	BS15 1BZ
3753	Cinderford	100121368643	Foundry Road, Cinderford, Gloucestershire	GL14 2JU
3756	Bishopsworth	174444	59 Whitchurch Lane, Bishopsworth, Bristol	BS13 7TE
3757	Yate	592672	39 South Parade, Yate Town Shopping Centre, Yate	BS37 4BB
3758	Poole	10001092965	Old Town Market, Dearhay Lane, Poole, Dorset	BH15 1NZ
3759	Stroud	200003104096	Cornhill Shopping Centre, Stroud 	GL5 2JT
3761	Tewkesbury	10091794282	Tewkesbury Borough Council, Gloucester Road, Tewkesbury	GL20 5TT
3763	Horfield	14899	1-15 Monks Park Avenue, Bristol 	BS7 0UD
3770	Blandford	100041116812	50 East Street, Blandford 	DT11 7UE
3771	Bridport	100041032865	1 West Street, Bridport 	DT6 3QJ
3780	Weymouth	10002059735	Westwey Road, Weymouth, Dorset	DT4 8TG
3795	Devizes	100121321354	Maryport Street, Devizes, Wiltshire	SN10 1AE
3800	Salisbury	100121332663	Summerlock Approach, Salisbury, Wiltshire	SP2 7RW
3803	Chippenham	100121327529	Cyppa Court, Avenue La Fleche, Chippenham	SN15 3LH
3804	Trowbridge	100121340538	Aplin House, Bythesea Road, Trowbridge	BA14 8XR
3807	Swindon	10009420961	Spring Garden House, Princes Street, Swindon, Wiltshire	SN1 2HY
4503	Kings Heath	100071428355	3 Scots Corner, Institute Road, Kings Heath, Birmingham	B14 7EG
4507	Market Drayton	10014523996	51 Stafford St, Market Drayton, Shropshire	TF9 1JF
4541	Bridgnorth	100071400924	Severn Street, Bridgnorth, Shropshire	WV15 6BP
4549	Telford	452097936	Telford House, Southwater Way, Town Centre, Telford, Shropshire	TF3 4PD
4550	Oswestry	100071532456	27 Oswald Road, Oswestry 	SY11 1DZ
4551	Shrewsbury	100071530548	Princess House, 17 - 19 The Square, Shrewsbury	SY1 1YA
4554	Whitchurch	100071535044	Greenend Parade, Whitchurch, Shropshire	SY13 1AG
4562	Bilston	100071405188	High Street, Bilston 	WV14 0DB
4564	Perry Barr	100071410008	Meridian House, 115 Aston Lane, Perry Barr, Birmingham	B20 3BW
4565	Brownhills	100071553496	107 High Street, Brownhills, Walsall	WS8 6HL
4567	Burton on Trent	10091770831	Crown House, New Street, Burton On Trent, Staffordshire	DE14 3SN
4568	Cannock	200003093400	Government Buildings, Beecroft Road, Cannock, Staffordshire	WS11 1JR
4574	Hanley	3455123553	91 Upper Huntbach Street, Hanley, Stoke On Trent, Staffordshire	ST1 2BX
4576	Kidsgrove	100032219172	The Avenue, Kidsgrove, Stoke-On-Trent	ST7 1AH
4578	Lichfield	10013847265	Guardian House, Birmingham Road, Lichfield	WS13 6JG
4579	Longton		83 - 87 The Strand, Longton, Stoke - On - Trent, Staffordshire	ST3 2PF
4580	Newcastle-under-Lyme		Paradise Street, Newcastle Under Lyme, Staffordshire	ST5 1RS
4582	Smethwick	32147178	Trinity House, High Street, Smethwick, West Midlands	B66 3AD
4583	Stafford	100032201669	St Chads Place, Stafford	ST16 2LR
4586	Tamworth	394033070	90 Saxon Mill Lane, Tamworth, Staffs	B79 7JJ
4587	Tipton	32024002	69 Owen Street, Tipton, West Midlands	DY4 8ES
4589	Walsall Bridle Court	100071545790	1-5 Hatherton Road, Walsall 	WS1 1XR
4591	West Bromwich	32087490	Christchurch House, High Street, West Bromwich	B70 8LG
4592	Willenhall	100071558670	Upper Lichfield Street, Willenhall 	WV13 1DH
4593	Wolverhampton Molineux House	100071562951	Molineux House, Temple Street, Wolverhampton, West Midlands	WV2 4AU
4600	Yardley, Birmingham	100071445714	1630 Coventry Road, Yardley, Birmingham	B26 1AW
4602	Birmingham South West	100071453409	1300 Bristol Road South, Northfield, Birmingham	B31 2TQ
4603	Bedworth	100071359985	12 High Street, Bedworth, Nuneaton, Warwickshire	CV12 8NF
4604	Broad Street, Birmingham	100071567987	Centennial House, 100 Broad Street, Birmingham	B15 1AU
4605	Chelmsley Wood		1 Chelmsley Circle, Chelmsley Wood, Birmingham	B37 5TH	52.4807734	-1.7424863
4607	Handsworth	100071440511	184-186 Soho Road, Handsworth, Birmingham	B21 9SL
4610	Leamington Spa	10023409940	Brandon House, Holly Walk, Leamington Spa, Warwickshire	CV32 4JE
4611	Nuneaton	100071495628	Mill House, Mill Walk, Nuneaton, Warwickshire	CV11 4DL
4612	Rugby	10010516224	Kingsforth House, 44 Albert Street, Rugby, Warwickshire	CV21 2TD
4614	Solihull	100071489569	Park House, 74 New Road, Solihull, West Midlands	B91 3DR
4615	Birmingham City	100071450604	65 - 77 Summer Row, Ladywood, Birmingham	B3 1LB
4616	Stratford-upon-Avon	10023584943	Martin Raff House, Alcester Road, Stratford Upon Avon	CV37 9DA
4617	Sutton Coldfield	100071483408	King Edward Court, 2 Railway Road, Sutton Coldfield	B73 6AY
4618	Washwood Heath	100071486449	295 Washwood Heath, Washwood Heath, Birmingham	B8 2XX
4633	Selly Oak	100071449935	Harborne Lane, Selly Oak, Birmingham, West Midlands	B29 6SP
4635	Walsall Bayard House	100071404237	Lichfield Street, Walsall, West Midlands	WS1 1SP
4638	Coventry Cofa Court	100071492310	Cheylesmore, Coventry 	CV1 2HJ
4641	Wolverhampton Chapel Court	100071555372	Queen Street, Wolverhampton 	WV1 3AF
4642	Sparkhill	100071422573	Heynesfield House, 10 Stoney Lane, Sparkhill, Birmingham	B12 8AF
4645	Erdington	10091554968	Sutton New Road, Erdington, Birmingham, West Midlands	B23 6TD
4646	Atherstone	10091768723	The Council House, South Street, Atherstone	CV9 1DR
4701	Hereford	10094165678	Blueschool House, Blueschool Street, Hereford, Herefordshire	HR1 2LX
4704	Leominster	10022776354	Lion Court, Leominster, Herefordshire	HR6 8JE
4705	Ross-On-Wye	10091654027	Library And Information Centre, Cantilupe Road, Ross on Wye	HR9 7AN
4720	Bromsgrove	100121266139	Churchfields, Bromsgrove, Worcs	B61 8DX
4722	Dudley	90153401	Alexander House, 32 Wolverhampton Street, Dudley, West Midlands	DY1 1JR
4723	Evesham	10013941581	Worcestershire Hub, Evesham Contact Centre, Abbey Road, Evesham	WR11 4SB
4724	Halesowen	90143259	Maybrook House, Queensway, Halesowen, West Midlands	B63 4AH
4725	Kidderminster	100121282994	Kidderminster Library, Market Street, Kidderminster, Worcestershire	DY10 1AB
4726	Malvern	200001122492	Malvern Library, Graham Road, Worcestershire	WR14 2HU
4727	Oldbury	10008751048	1 Church Street, Oldbury, Warley, West Midlands	B69 3AD
4730	Stourbridge	90153387	169 Lower High Street, Stourbridge, West Midlands, West Midlands	DY8 1ES
4732	Worcester	10091954792	Vine House, Farrier Street, Worcester	WR1 1EL
4747	Redditch	100120627750	Redditch Library, 15 Market Place, Redditch	B98 8AR
5517	Shirebrook	100032111061	233 Station Road, Shirebrook, Mansfield, Nottinghamshire	NG20 8AF
5520	Corby	10006865922	George Street, Corby, Northants	NN17 1PH
5521	Daventry	28010493	Civic Offices, Lodge Road, Daventry, Northamptonshire	NN11 4FP
5524	Kettering	10007869515	Derbyshire House, Lower Street, Kettering, Northamptonshire	NN16 8BG
5526	Northampton		Lower Mounts, Northampton 	NN1 3LY
5529	Rushden	200000740389	71 Rectory Road, Rushden, Northants	NN10 0AF
5532	Wellingborough	100032155180	Lothersdale House, West Villa Road, Wellingborough, Northamptonshire	NN8 4NE
5533	Derby City Centre	100031998929	Council House, Corporation Street, Derby	DE1 2FU
5634	Gainsborough	10090697764	West Lindsey District Council, Guildhall, Marshalls Yard, Lincolnshire	DN21 2NA
5640	Louth	100032079770	17 Eastgate, Louth, Lincolnshire	LN11 9NB
5644	Skegness	10091943333	1A Wainfleet Road, Skegness, Lincolnshire	PE25 3PA
5651	Bulwell	100032287792	Sovereign House, Bulwell High Road, Bulwell, Nottingham	NG6 8HX
5652	Beeston	10003431396	Acacia House, Acacia Walk, Nottingham	NG9 2LW
5654	Arnold	10091819839	Arnold Jcp, Gedling Borough Council, Civic Centre, Arnot Hill Park, Arnold	NG5 6LT
5658	Mansfield	100032107530	Mansfield District Council, Civic Centre, Chesterfield Road South, Mansfield, Nottinghamshire	NG19 7BH
5660	Newark	10091746812	Castle House, Great North Road, Newark, Nottinghamshire	NG24 1BY
5662	Retford	100032031527	23A Grove Street, Retford, Notts	DN22 6JR
5664	Nottingham Central	100032094885	Pearson Building, 55-57 Parliament St, Nottingham, Nottinghamshire	NG1 6AX
5665	Ashfield	10070855535	Urban Rd, Kirkby in Ashfield, Nottinghamshire	NG17 8DA
5666	Worksop	10090593239	Queen's Building, Potter Street, Worksop, Nottinghamshire	S80 2AQ
5681	Nottingham Loxley House		DWP Loxley House, Nottingham, Nottinghamshire	NG2 3QD
5690	Boston	10091827004	Municipal Buildings, West Street, Boston, Lincolnshire	PE21 8QR
5692	Grantham	10007265619	Crown House, 49A Castlegate, Grantham	NG31 6SY
5694	Lincoln Orchard Street	235048357	Lancaster House, 36 Orchard Street, Lincoln, Lincolnshire	LN1 1YZ
5695	Sleaford	10006540778	Nkdc, Kesteven Street, Sleaford, Lincolnshire	NG34 7DT
5696	Spalding	10015211250	South Holland District Council, Council Offices, Priory Road, Spalding	PE11 2XE
5697	Stamford	100032175782	13 St Johns Street, Stamford, Lincolnshire	PE9 2DB
5770	Alfreton	10000256995	King Street, Alfreton, Derbyshire	DE55 7AF
5773	Belper	100032020476	54 King Street, Belper, Derbyshire	DE56 1PN
5774	Chesterfield		Markham House, Markham Road, Chesterfield	S40 1TG
5778	Heanor	100032027697	Howitt Buildings, High Street, Heanor, Derbyshire	DE75 7EZ
5779	Ilkeston	100032024998	Ilkeston, Derbyshire 	DE7 8TU
5780	Long Eaton	100032095648	Fletcher Street, Long Eaton, Nottingham	NG10 1JU
5781	Matlock	10070102180	The Phoenix Centre, 2 Lime Grove Walk, Matlock, Derbyshire	DE4 3FD
5783	Staveley	74024357	Devonshire Building, Duke Street, Staveley, Chesterfield	S43 3NU
5784	Swadlincote	200003155371	7 The Delph Centre, Market Street, Swadlincote, Derbyshire	DE11 9DY
5811	Coalville	100032067883	Crown House, Whitwick Road, Coalville, Leicestershire	LE67 3FB
5812	Hinckley		Hinckley Hub, Rugby Road, Hinckley, Leicestershire	LE10 0FR
5813	Loughborough	10012191801	Charnwood Borough Council, Southfield Road, Loughborough	LE11 2TX
5814	Market Harborough	10034463608	The Symington Building, Adam And Eve Street, Market Harborough, Leicestershire	LE16 7LT
5815	Melton Mowbray	10033212212	Parkside, Station Approach, Burton Street, Melton Mowbray, Leicestershire	LE13 1GH
5817	Leicester New Walk	2465058657	2A New Walk, Leicester 	LE1 6TF
5818	Leicester Charles Street	2465164946	2 Charles Street, Leicester 	LE1 3JD
5820	Leicester Wellington Street	2465060138	60 Wellington Street, Leicester 	LE1 6DS
6509	Sheffield Hillsborough	200002995139	Cavalry & Lancer Court, Hillsborough Barracks, 639-641 Penistone Road, Sheffield	S6 2GG
6511	Immingham	10090084222	Immingham Civic Centre, Pelham Road, Immingham, North East Lincolnshire	DN40 1QF
6515	Ryedale	200001270745	Norton Road, Malton, North Yorkshire	YO17 9RD
6630	Barton-Upon-Humber	100051969842	King Street, Barton-On-Humber, North Lincolnshire	DN18 5ER
6636	Grimsby	11070128	225 Victoria Street, Grimsby, North East Lincolnshire	DN31 1NH
6645	Scunthorpe	100052177650	Crown Buildings, Laneham Street, Scunthorpe, North Lincolnshire	DN15 6JT
6652	Seacroft	72144829	Parkway House, North Parkway, Seacroft, Leeds	LS14 6UZ
6653	Leeds Eastgate	72062351	35 Eastgate, Leeds 	LS2 7RE
6666	Sheffield Cavendish Court	10003574704	9 Bank Street, Sheffield 	S1 2DR
6670	Bradford Westfield House	10010581672	85 Manningham Lane, Bradford, West Yorkshire	BD1 3BE
6674	Barnsley	100052111342	Cooper House, 59 Peel Street, Barnsley	S70 2RL
6677	Beverley	10024213792	Crosskill House, Mill Lane, Beverley	HU17 9JW
6680	Bridlington	10024213790	Crown Buildings, Quay Road, Bridlington, East Yorkshire	YO16 4LY
6683	Castleford	63166784	Centurion House, Bank Street, Castleford, West Yorkshire	WF10 1HY
6684	Chapeltown	10091834650	1A Station Road , Chapeltown, Sheffield	S35 2XE
6685	Dewsbury	83164899	Rishworth Road, Dewsbury, West Yorkshire	WF12 8EF
6690	Guiseley	72293373	Alva House, Otley Road, Guiseley, Leeds	LS20 8AF
6692	Goole	100051963916	Mulberry House, North Street, Goole, East Yorkshire	DN14 5QB
6695	Halifax	100052037514	Crossfield House, St James Road, Halifax	HX1 1PE
6696	Harrogate	100052005016	35 Victoria Avenue, Harrogate, North Yorkshire	HG1 5PZ
6699	Doncaster	100051961457	Wood Street, Doncaster, South Yorkshire	DN1 3LL
6700	Hessle	100052015928	26 The Weir, Hessle 	HU13 0RX
6701	Bradford Eastbrook Court	100051930781	50 Vicar Lane, Bradford, West Yorkshire	BD1 5AH
6708	Keighley	10090402900	Worth Way, Keighley, West Yorkshire	BD21 5AG
6711	Maltby	100052108595	Abbey Court, 1 Grange Lane, Maltby	S66 7DA
6712	Huddersfield	83057568	Jobcentre Plus, Castle House, Market Street, Huddersfield	HD1 2NE
6713	Mexborough	100052105288	Crown Buildings, Adwick Road, Mexborough, South Yorkshire	S64 0BD
6715	Morley	72677285	Highpoint House, 88 Queen Street, Morley	LS27 9EB
6718	Leeds Park Place	72547440	21/22 Park Place, Leeds 	LS1 2SL
6722	Pontefract	63179279	Liquorice Way, Pontefract, West Yorkshire	WF8 1DR
6724	Rotherham	100052101887	Chantry House, Douglas Street, Rotherham	S60 2DL
6725	Leeds Southern House	72240677	Southern House, 529 York Road, Leeds	LS9 6TF
6727	Hull Britannia House	10024008291	Britannia House, 2 Ferensway, Hull	HU2 8NF
6728	Selby	10034324606	Flaxley Chambers, Flaxley Road, Selby	YO8 3BH
6731	Sheffield Bailey Court	100052079664	112 West Street, Sheffield 	S1 3SY
6733	Skipton	100051946142	Cavendish House, Newmarket Street, Skipton, North Yorkshire	BD23 2HN
6736	Hemsworth	63161703	Low Hall, Market Street, Hemsworth	WF9 4HP
6738	Spen Valley	83118838	411 Bradford Road, Liversedge, West Yorkshire	WF15 6DD
6742	Thorne	100051985349	Orchard Street, Thorne, South Yorkshire	DN8 5EQ
6743	Todmorden	100051355614	27-31 Adelaide Street, Todmorden, Lancashire	OL14 5HT
6744	Wakefield	63156047	Crowther House, Thornhill Street, Wakefield	WF1 1PL
6749	Wombwell	100052114993	19 Kings Road, Wombwell, Barnsley, S Yorks	S73 0JE
6750	Sheffield Woodhouse	100052216768	Prospect House, Market Street, Woodhouse, Sheffield	S13 7QX
6752	York Monkgate	100052185207	11-17 Monkgate, York 	YO31 7JZ
6763	Dinnington	100052090938	4 Church Lane, Dinnington, Sheffield	S25 2LZ
6769	Pudsey	72281000	Church Lane, Pudsey, Leeds	LS28 7RQ
6788	Northallerton	10001287006	Elder House, East Road, Northallerton, North Yorkshire	DL6 1NU
6791	Richmond	10004782036	Victoria Road, Richmond, North Yorkshire	DL10 4AS
6793	Scarborough	100052152975	Albion House, Northway, Scarborough	YO12 7AJ
6797	Whitby	100052160289	6 Bobbies Bank, Whitby 	YO21 1QZ
7501	Altrincham	10070492404	Roberts House, 80 Manchester Road, Altrincham	WA14 4PU
7503	Birkenhead	42163104	29 Price Street, Birkenhead, Wirral, Merseyside	CH41 6JN
7505	Chester	100012824396	Chester Jobcentre, Chantry House, 55-57 City Road, Chester	CH1 3AQ
7506	Congleton	100012599271	Wagg Street, Congleton, Cheshire	CW12 4BD
7508	Ellesmere Port	10014518308	1/3 Mercer Walk, The Port Arcades, Ellesmere Port, Cheshire	CH65 0AP
7511	Hyde	100012775633	New Beech Street, Hyde, Cheshire	SK14 2LS
7514	Macclesfield	100012831184	30 King Edward Street, Macclesfield 	SK10 1AE
7518	Neston	200003330624	Neston Community and Youth Centre, Burton Road, Neston, Cheshire	CH64 9RE
7519	Bromborough	42177614	Port Causeway House, Port Causeway, Bromborough, Wirral	CH62 4TG
7520	Northwich	100012605030	17-21 London Road, Northwich 	CW9 5JQ
7525	Stockport	100012769756	Wellington Street, Stockport, Cheshire	SK1 3BE
7526	Wythenshawe	10024148977	Forum Trust Complex, Forum Square, Wythenshawe	M22 5RX
7529	Winsford	100012603083	Wyvern House, The Drumber, Winsford	CW7 1AH
7533	Crewe	100012595268	Wellington House, 38-44 Delamere Street, Crewe, Cheshire	CW1 2JY
7552	Upton	42177623	52 Arrowe Park Road, Upton, Wirral, Merseyside	CH49 0UE
7553	Runcorn	10010612604	Jobcentreplus, Andrew House, Halton Lea Shopping Centre, Runcorn, Cheshire	WA7 2FQ
7554	Cheetham Hill	77001151	36 Crescent Road, Manchester, Manchester	M8 9DQ
7555	Rusholme	10023053083	96 Wilmslow Road, Rusholme, Manchester	M14 5BJ
7595	Buxton	10010758347	84-86 Spring Gardens, Buxton, Derbyshire	SK17 6BU
7597	Glossop	10010740531	Howard Street, Glossop, Derbyshire	SK13 7DF
7610	Everton	38021577	Premier House, 95 Breckfield Road North, Everton, Liverpool	L5 4NQ
7615	Belle Vale, Liverpool	38032035	302 Childwall Valley Road, Liverpool, Merseyside	L25 2UF
7616	Rochdale	23061609	2 Fleece Street, Rochdale 	OL16 1LT
7620	Accrington	100012544862	Oak Bank House, Oak Street, Accrington	BB5 1PJ
7621	Ashton-in-Makerfield	100012854912	17-19 Gerard Street, Ashton-in-Makerfield 	WN4 9AB
7622	Ashton-Under-Lyne	100012739938	101 Old Street, Ashton-U-Lyne, Lancs	OL6 6BJ
7628	Blackburn	100012534744	Orchard House, Penny Street, Blackburn	BB1 6HA
7629	Blackpool South	100012609264	Municipal Buildings, Corporation Street, Blackpool, Lancashire	FY1 1EW
7631	Bootle	41091334	Park House, 218 Stanley Road, Bootle, Merseyside	L20 3PN
7632	Burnley	10023762601	Victoria Street, Burnley, Lancashire	BB11 1DD
7633	Bury	10003109333	Silver Street, Bury 	BL9 0DP
7637	Chorley	100012830164	Hamilton Road, Chorley 	PR7 2HB
7639	Clitheroe	10022971243	Church Walk, Clitheroe, Lancashire	BB7 2RA
7641	Bolton, Blackhorse Street	200002563739	52 Blackhorse Street, Bolton 	BL1 1SX
7647	Eccles	10007886511	Sentinel House, Monton Road, Eccles, Manchester	M30 0NA
7652	Garston, Liverpool	38142717	Speke Road, Garston, Liverpool	L19 2JZ
7656	Heywood	23031354	Taylor Street, Heywood, Lancs	OL10 1ED
7659	Irlam	10004676421	Irlam Library, Hurst Fold, Liverpool Road, Irlam	M44 6FD
7661	Lancaster	10024270566	Mitre House, Church Street, Lancaster	LA1 1JW
7662	Leigh	100012818957	2 - 10 Windermere Road, Leigh, Lancashire	WN7 1UT
7663	Longsight	10023053055	123 Clarence Rd, Longsight, Manchester	M13 0ZL
7664	Leyland	10013239162	Leyland Civic Centre, West Paddock, Leyland	PR25 1DH
7668	Crosby	41045166	Hougoumont House, 29 Hougoumont Avenue, Crosby, Liverpool	L22 0PB
7672	Kirkby	40072942	St Chads House, St Chads Drive, Kirkby, Liverpool	L32 8RW
7676	Toxteth	38076105	High Park House, 7 High Park Street, Liverpool, Merseyside	L8 8DY
7680	Middleton	10023363668	7 Oldham Road, Middleton, Lancashire	M24 1BX
7681	Morecambe	100012626046	Heron House, 67 Queen Street, Morecambe, Lancashire	LA4 5HW
7683	Nelson	100012550892	14-16 Netherfield Rd, Nelson, LANCS	BB9 9AW
7684	Newton Heath	77028431	1009 Oldham Road, Manchester 	M40 2EP
7685	Oldham	422000076733	Tweedale House, 75 Union Street, Oldham, Manchester	OL1 1LH
7686	Openshaw	10023053072	Cornwall Street, Openshaw, Manchester	M11 2WR
7687	Ormskirk	100012653843	31A Church Street, Ormskirk, Lancashire	L39 3QT
7688	Skelmersdale	10012339827	Whelmar House, Southway, Skelmersdale	WN8 6NT
7690	Huyton	40073874	Edendale House, Lathom Road, Liverpool	L36 9XS
7694	Prestwich	100012827214	1 Rectory Lane, Prestwich, Manchester	M25 1BP
7697	Rawtenstall	100012841476	Bacup Road, Rossendale 	BB4 7NH
7698	Alexandra Park, Manchester	77098506	91 Moss Lane East, Moss Side, Manchester	M15 5JB
7701	St Annes	100012618420	Westmorland House, 29-31 Orchard Road, Lytham St Annes, Lancashire	FY8 1YS
7703	Salford	10091882950	2 Paddington Close,  , Salford, Lancashire	M6 5PL
7705	Southport	10091831977	Eastbank House, 68B Eastbank Street, Southport	PR8 1HF
7708	St Helens	39010399	2 Central Street, St Helens, Merseyside	WA10 1UF
7712	Worsley	10091870950	5 Worsley Court, High Street, Walkden, Manchester	M28 3AD
7713	Warrington	100012792948	Nolan House, 10 Mersey Street, Warrington	WA1 2BL
7716	Widnes	100012810638	Caldwell Road, Widnes, Cheshire	WA8 7EA
7717	Wigan	10009213349	Brocol House, 71-73 King Street, Wigan	WN1 1EA
7718	Didsbury	77107762	Danesmoor Court, 95-97 Palatine Road, West Didsbury	M20 3JQ
7719	Liverpool City	10091969040	St George's Way, St John's Precinct, Liverpool	L1 1LY
7720	West Derby, Liverpool	38049819	Springfield House, 416 Eaton Road, Liverpool, Merseyside	L12 3HT
7754	Fleetwood	10034084054	Roskell House, 11 - 27 Kemp Street, Fleetwood, Lancashire	FY7 6JX
7757	Preston	10007610712	Gateway House, 200 Ringway, Preston	PR1 2ER
7782	Stretford	100012700169	Stretford Mall, Chester Road, Stretford, Manchester	M32 9ED
8504	Carlisle	10008705506	Broadacre House, 16-20 Lowther Street, Carlisle, Cumbria	CA3 8DA
8511	Penrith	10070543364	19-24 Friargate, Penrith 	CA11 7QH
8513	Whitehaven	10000899871	The Copeland Centre, Catherine Street, Whitehaven, Cumbria	CA28 7SJ
8515	Workington	10000880657	Simon House, 197 - 199 Vulcan Lane, Workington, Cumbria	CA14 2BW
8529	Darlington	10013319412	Bondgate House, 90 Bondgate, Darlington	DL3 7JY
8538	Billingham	100110783739	Theatre House, Kingsway, Billingham, Cleveland	TS23 2NA
8553	Stockton	10009305734	Daryl House, Bridge Road, Stockton-On-Tees, Cleveland	TS18 3BW
8576	Kendal	100110759764	Kentmere House, Blackhall Road, Kendal, Cumbria	LA9 4BS
8600	Alnwick	10001021764	Roxburgh House, Roxburgh Place Greenbatt, Alnwick, Northumberland	NE66 1JX
8602	Ashington	100110768302	Government Buildings, Reiverdale Road, Ashington, Northumberland	NE63 9YY
8603	Bedlington	10024651915	Longridge House, Front Street West, Bedlington, Northumberland	NE22 5TL
8604	Berwick	10024651916	15 Walkergate, Berwick Upon Tweed, Northumberland	TD15 1DS
8605	Blyth	10024650065	Bridge House, Percy Street, Blyth, Northumberland	NE24 2AQ
8606	Hexham	10024651914	St Andrews House, Haugh Lane, Hexham, Northumberland	NE46 3NF
8607	Morpeth	2920010109	New Market, Morpeth, Northumberland	NE61 1LA
8611	Cramlington	10035314906	17/19 Dudley Court, Manor Walks Shopping Centre, Cramlington, Northumberland	NE23 6QW
8627	Barrow-in-Furness	36005453	Craven House, Michaelson Road, Barrow In Furness, Cumbria	LA14 1AE
8783	Guisborough	10023901682	Nathan House, Northgate, Guisborough, Cleveland	TS14 6JS
8785	Loftus	10034525268	52-53 West Road, Loftus, Saltburn, Cleveland	TS13 4RF
8787	Middlesbrough East	100110138969	Beresford Buildings, The Greenway, Thorntree, Middlesbrough	TS3 9NB
8788	Middlesbrough	100110774667	James Cook House, 79 Corporation Road, Middlesbrough	TS1 2BA
8790	Redcar	200002525342	Portland House, West Dyke Road, Redcar, Cleveland	TS10 1DH
8794	Eston	100110790532	Hadrian House, 81 High Street, Eston, Middlesbrough	TS6 9EH
8803	Thornaby	100110795690	Ingram House, Allensway, Thornaby, Stockton on Tees	TS17 9HA
8822	Bishop Auckland	200002978257	35 Market Place, Bishop Auckland, Co Durham	DL14 7NX
8823	Blaydon	10022992772	St Cuthberts Way, Blaydon, Tyne and Wear	NE21 5AD
8824	Chester-Le-Street	100110739939	Crown Buildings, Station Rd, Chester-Le-Street, Co. Durham	DH3 3AB
8825	Newton Aycliffe	10012056953	The Avenue, Greenwell Road, Newton Aycliffe, Co Durham	DL5 4DH
8827	Consett	100110742520	5A Medomsley Road, Consett 	DH8 5HE
8828	Crook	100110748385	New Road, Crook, Co Durham	DL15 8LP
8831	Durham	200003219646	Elvet House, Hallgarth Street, Durham	DH1 3BP
8835	Gateshead	100000516732	Shildon House, High Street, Gateshead	NE8 1AS
8839	Peterlee	10015142230	Hatfield House, St. Cuthbert's Road, Peterlee, Co. Durham	SR8 1PB
8840	Houghton-le-Spring	45012267	Broadway House, Frederick Place, Houghton-Le-Spring, Tyne and Wear	DH4 4DL
8841	Jarrow	100000504014	Ellison Street, Jarrow, Tyne and Wear	NE32 3BX
8845	Seaham	200001109395	Church View House, St Johns Square, Seaham, Co Durham	SR7 7JE
8848	South Shields	200000000852	Chapter Row, South Shields, Tyne and Wear	NE33 1BZ
8849	Southwick	45031515	Stoney Lane, Southwick, Sunderland, Tyne and Wear	SR5 2JB
8850	Spennymoor	100110748803	Barnfield Road, Spennymoor, Co Durham	DL16 6ND
8852	Stanley	200004280046	2 Front Street, Stanley, Co Durham	DH9 0LT
8854	Sunderland	45005867	60-66 John Street, Sunderland, Tyne and Wear	SR1 1QT
8855	Washington	45070891	Pennine House, Town Centre, Washington, Tyne and Wear	NE37 1LY
8856	Hartlepool	100110785114	Ward Jackson House, Wesley Square, Hartlepool	TS24 8EZ
8874	Newcastle West	4510136777	Condercum House, 171 West Road, Newcastle Upon Tyne	NE15 6PL
8884	Newcastle City	4510719013	No1 Cathedral Square, Cloth Market, Newcastle Upon Tyne	NE1 1EE
8885	North Shields	47049061	Camden Street, North Shields, Tyne and Wear	NE30 1ND
8888	Newcastle East	4510137904	Coquet House, Clifford Street, Byker, Newcastle Upon Tyne	NE6 1PH
8889	Wallsend	47085050	Hadrian House, Station Road, Wallsend, Tyne and Wear	NE28 6HP
8890	Killingworth	47102182	Units 23 / 24, The Centre, Killingworth, Newcastle Upon Tyne, North Tyneside	NE12 6YT
9013	Pwllheli	10070363636	Lower Cardiff Road, Pwllheli 	LL53 5BY
9501	Brecon	200001885127	Canal Bank, Brecon 	LD3 7HL
9503	Port Talbot	200002955756	64-66 Station Road, Port Talbot, West Glamorgan	SA13 1LX
9504	Cardiff Alexandra House	100100914685	Cowbridge Rd East, Canton, Cardiff	CF5 1WU
9510	Ammanford	10004860980	Llys Afon, Park Street, Ammanford, Carmarthenshire	SA18 2NT
9512	Carmarthen	10024324593	John Street, Carmarthen 	SA31 1QT
9516	Llanelli	10004853934	58 Stepney Street, Llanelli, Carmarthenshire	SA15 3TN
9532	Gorseinon	200002958908	42-44 Lime Street, Gorseinon 	SA4 4EH
9536	Morriston	100101016738	Clase Road, Morriston, West Glamorgan	SA6 8BT
9549	Porthcawl	100100904524	Dock Street, Porthcawl, Mid Glamorgan	CF36 3BL
9570	Abergavenny	200000951317	Newbridge House, Tudor Street, Abergavenny	NP7 5EF
9571	Caldicot	100100978164	66 Newport Road, Caldicot, Gwent	NP26 4BR
9576	Chepstow	200000957336	Station Road, Chepstow, Gwent	NP16 5UL
9591	Haverfordwest	200002959850	16-20 Quay Street, Haverfordwest 	SA61 1BH
9592	Milford Haven	10023952701	Suite 4A, Cedar Court, Havens Head Business Park, Milford Haven, Pembrokeshire	SA73 3LS
9600	Amlwch	10024357076	Unit 2, Site 9, Amlwch Business Park, Amlwch, Ynys Mon	LL68 9BQ
9602	Holyhead	100100961594	The Old Vicarage, Newry Street, Holyhead, Anglesey	LL65 1DB
9603	Llangefni	200002645838	Government Buildings, Bridge Street, Llangefni, YNYS MON	LL77 7YJ
9610	Bangor	200003183076	322-330 High Street, Bangor 	LL57 1YA
9612	Caernarfon	10024261841	Government Building, Penrallt, Caernarfon, Gwynedd	LL55 2HN
9615	Llandudno	200002948849	29-31 Chapel Street, Llandudno 	LL30 2SS
9618	Dolgellau	10070275977	Government Building, Arran Road, Dolgellau, Gwynedd	LL40 1BP
9630	Aberystwyth	49019765	Alexandra Road, Aberystwyth, Dyfed	SY23 1LA
9631	Cardigan	49000768	Crown Buildings, Napier St, Cardigan	SA43 1EF
9643	Colwyn Bay	200002948286	Princess Park 2, Princess Drive, Colwyn Bay 	LL29 8PL
9661	Flint	10090465651	Flintshire Connects, Chapel Street, Flint	CH6 5BD
9663	Mold	100101033977	St David'S Lane, Mold, Flintshire	CH7 1LH
9664	Rhyl	200002946124	80 High Street, Rhyl, Denbighshire, DENBIGHSHIRE	LL18 1UU
9665	Shotton	10013704600	Civic Centre Complex, Wepre Drive, Connahs Quay	CH5 4HA
9673	Wrexham	10013540825	15 - 17 Grosvenor Road, Wrexham 	LL11 1BW
9679	Ystradgynlais	100101024859	Wind Road, Ystradgynlais, Swansea	SA9 1AB
9681	Machynlleth	10011801279	43-45 Maengwyn Street, Machynlleth, Powys	SY20 8EB
9682	Newtown	10090729644	Afon House, The Park, Newtown, Powys	SY16 2PZ
9683	Welshpool	10090259710	New Dolanog House, Severn Road, Welshpool	SY21 7AP
9691	Llandrindod Wells	10006970146	Automobile Palace, Princes Avenue, Llandrindod Wells, Powys	LD1 5HU
9820	Aberdare	200003771457	Crown Buildings, Greenbach, Aberdare	CF44 7HU
9822	Bargoed	43164510	Charleston House, Bargoed, Mid Glamorgan	CF81 8RD
9823	Barry	64004926	9 Holton Road, Barry, Vale of Glamorgan	CF63 4HA
9824	Bridgend	200002655523	Market Street, Bridgend 	CF31 1LL
9826	Caerphilly	43024416	Castle Street, Caerphilly, Mid Glam	CF83 1UA
9828	Cardiff Charles Street	100100890237	64 Charles St, Cardiff, S Wales	CF10 2GS
9834	Maesteg	100101038394	12-16 Commercial Street, Maesteg, Mid Glamorgan	CF34 9DF
9835	Merthyr Tydfil	10034653493	Ty Bethesda, Avenue De Clichy, Merthyr Tydfil, Mid Glamorgan	CF47 8AS
9838	Porth	100100907932	35 Hannah Street, Porth 	CF39 9RB
9839	Neath	100100989881	1 Windsor Road, Neath, West Glamorgan	SA11 1LY
9841	Penarth	64012696	Charnwood House, Plymouth Road, Penarth	CF64 3DA
9845	Llantrisant	100100919968	17  Ely Valley Road, Talbot Green, Pontyclun, Mid Glamorgan	CF72 8AL
9847	Pontypridd	100101050126	Broadway, Pontypridd, Mid Glam	CF37 4SP
9854	Swansea	200002954241	37-38 High Street, Swansea 	SA1 1LS
9855	Tonypandy	200003771391	Thistle House, Tonypandy, Mid Glamorgan	CF40 2EP
9858	Treorchy	100100909649	Oldway House, Bute Street, Treorchy	CF42 6TE
9871	Abertillery	10070620015	Portland Street, Abertillery 	NP13 1YG
9872	Blackwood		Vision House, High Street, Blackwood, Gwent	NP12 1BE
9877	Ebbw Vale	10091821210	Ty Gantre, Civic Centre, Ebbw Vale, Gwent	NP23 6XG
9880	Newport	100101046461	2-6 Charles Street, Newport, Gwent	NP20 1JR
9882	Cwmbran	100100981495	42 Gwent Square, Cwmbran, Gwent	NP44 1PL
9883	Pontypool	100100979138	Park Road, Gwent 	NP4 6XQ
9894	Pembroke Dock	100101022520	Gordon Street, Pembroke Dock 	SA72 6EP
10501	Greenock	119000460	99 Dalrymple Street, Greenock 	PA15 1QL
10502	Ayr	141023765	Wallacetoun House, John Street, Ayr, Ayrshire	KA8 0BX
10504	Cumnock	127039044	33 Townhead Street, Cumnock 	KA18 1JZ
10507	Girvan	141051435	Carrick Buildings, 20A Henrietta Street, Girvan	KA26 9AL
10530	Annan	137026147	Murray Street, Annan 	DG12 6JJ
10531	Dumfries	137017893	67-75 Irish Street, Dumfries 	DG1 2NU
10544	Shettleston	906700207750	955 Shettleston Road, Shettleston, Glasgow	G32 7NY
10545	Newlands	906700375693	8 Coustonholm Road, Glasgow 	G43 1SS
10549	Govan	906700169080	779/787 Govan Road, Govan, Glasgow	G51 3JY
10550	Drumchapel	906700079243	67 Kinfauns Drive, Drumchapel, Glasgow	G15 7TG
10553	Laurieston	906700295223	159 Pollockshaws Road, Glasgow 	G41 1PU
10558	Partick	906700012382	20 Benalder Street, Partick	G11 6QN
10561	Springburn	906700346364	200 Atlas Road, Springburn, Glasgow	G21 4DL
10565	Bellshill	118114373	417 Main Street, Bellshill, Lanarkshire	ML4 1HT
10570	Dalkeith	120032394	7 Buccleuch Street, Dalkeith 	EH22 1HB
10573	Leith	906058969	199 Commercial Street, Leith, Edinburgh	EH6 6QP
10575	Musselburgh	138035784	North House, Eskmills Park, Station Road, Musselburgh	EH21 7DU
10576	Penicuik	120047338	25-29 John Street, Penicuik, Midlothian	EH26 8HN
10578	High Riggs, Edinburgh	906124967	20 High Riggs, Edinburgh 	EH3 9HU
10601	Stranraer	10091771681	12 St John Street, Stranraer 	DG9 7EL
10603	Rothesay		9 King Street, Rothesay 	PA20 0DF
10604	Alloa	35004374	17 Mar Street, Alloa, Clackmannanshire	FK10 1LX
10607	Kirkwall	134013516	Tankerness Lane, Kirkwall, Orkney	KW15 1AQ
10608	Lerwick	30100000167	Charlotte House, Commercial Road, Lerwick	ZE1 0LQ
10612	Fraserburgh	151087540	2-4 South Harbour Road, Fraserburgh 	AB43 9RZ	57.6903373	-2.0038336
10615	Peterhead	151009034	57 St Peter Street, Peterhead 	AB42 1UX	57.5073484	-1.7809321
10619	Aberdeen Ebury House	10091750659	Ebury House, 14 Dee Street, Aberdeen	AB11 6DR	57.1443289	-2.1046099
10620	Arbroath	117101896	2 Chalmers Street, Arbroath, Scotland	DD11 1PP
10624	Dundee Wellgate	9059030851	Wellgate House, Wellgate Centre, Dundee	DD1 2DB
10625	Forfar	117079597	Service Road, Forfar, Angus	DD8 3HY
10627	Montrose	117071470	Castlestead, 4 Castle Place, Montrose	DD10 8AL
10630	Campbeltown	125030454	Government Buildings, 40 Hall Street, Campbeltown, Argyll	PA28 6BZ
10631	Dunoon	125030211	George Street, Dunoon, Argyll	PA23 8BB
10633	Oban	125010334	1 Miller Road, Oban, Argyll	PA34 4AF
10640	Banff	151088836	Town House, 34 Low Street, Banff	AB45 1AY	57.6644734	-2.5214322
10641	Buckie	133038827	Shanks Lane, Buckie, Banffshire	AB56 1AF	57.6766697	-2.962233
10652	Eyemouth	116034395	Upper Houndlaw, Eyemouth 	TD14 5BS
10661	Wick		Caithness House, Market Square, Wick	KW1 4HJ
10683	Cowdenbeath	320190031	6 Pit Road, Cowdenbeath 	KY4 9NQ
10684	Cupar	320177394	7 West Port, Cupar 	KY15 4AN
10685	Dunfermline	320190108	Merchiston House, Foundry Street, Dunfermline, Fife	KY12 9DF
10687	Glenrothes	320178635	3 Postgate, Glenrothes 	KY7 5LL
10688	Kirkcaldy	320183424	5 Hunter Street, Kirkcaldy, Fife	KY1 1ED
10690	Leven	320182841	9 Waggon Road, Leven 	KY8 4PT
10692	St. Andrews	320176813	187 South Street, St Andrews 	KY16 9EE
10701	Fort William	130179757	Charles Kennedy Building, Achintore Road, Fort William	PH33 6RQ
10702	Inverness	10091801490	Young Street, Inverness 	IV3 5BP
10703	Portree	130057250	Bayfield Road, Isle of Skye 	IV51 9EN
10730	Elgin	133000825	21 Trinity Road, Elgin, Scotland	IV30 1RJ
10731	Forres	133039602	Tytler Street, Forres 	IV36 1EL
10751	Blairgowrie	124012504	11-13 Perth Street, Blairgowrie 	PH10 6DQ
10755	Perth	124017968	60-62 High Street, Perth 	PH1 5TH
10761	Invergordon	130005762	43 High Street, Invergordon 	IV18 0DG
10762	Stornoway		2 Castle Street, Stornoway, Isle of Lewis	HS1 2BA
10764	Dingwall	130000923	3 High Street, Ross-Shire 	IV15 9HL
10770	Hawick	116077237	5-9 North Bridge Street, Hawick 	TD9 9RH
10780	Galashiels	116067643	New Reiver House, High Street, Galashiels, Selkirkshire	TD1 1TD
10792	Falkirk	136019033	10B Wellside Place, Falkirk 	FK1 5SE
10793	Grangemouth	136051422	13/15 Charlotte Dundas Court, Grangemouth, Stirlingshire	FK3 9EA
10795	Stirling	122017672	Government Buildings, 2 St Ninians Road, Stirling, Stirlingshire	FK8 2HF
10801	Saltcoats	126013534	13 Dockhead Street, Saltcoats 	KA21 5EZ
10808	Irvine	126036883	121 High Street, Irvine, Ayrshire	KA12 8AA
10809	Kilbirnie		Walker Street, Kilbirnie 	KA25 6HL
10812	Kilmarnock	127011529	17 Grange Street, Kilmarnock, Ayrshire, Scotland	KA1 2DF
10820	Alexandria	129001401	160 Bank Street, Alexandria 	G83 0UP
10821	Cumbernauld	118032998	3 South Muirhead Road, Cumbernauld, Glasgow	G67 1AX
10822	Clydebank	129000003	245 Kilbowie Road, Clydebank 	G81 2JL
10823	Dumbarton	10092760990	15 Meadowbank Street, Dumbarton, Dumbartonshire	G82 1SJ
10824	Helensburgh	125015150	5/7 Charlotte Street, Helensburgh, Scotland	G84 7PH
10825	Kirkintilloch	132022851	Queen Street, Kirkintilloch, Glasgow	G66 1JN
10840	Airdrie	118138883	44 Stirling Street, Airdrie 	ML6 0AH
10842	Cambuslang	484156204	Cambuslang Gate, 27 Main Street, Cambuslang, Glasgow	G72 7HB
10845	East Kilbride	484139134	55 The Plaza, Town Centre, East Kilbride	G74 1LW
10850	Hamilton	484066355	Cameronian House, Almada Street, Hamilton, Lanarkshire	ML3 0EH
10852	Lanark		South Lanarkshire Council, Council Offices, South Vennel, Lanark	ML11 7JT
10856	Motherwell	118076846	Jobcentre Plus, Flemington House, 600 Windmillhill Street, Lanarkshire	ML1 2HN
10858	Rutherglen	484129720	3 Macdonald Street, Rutherglen 	G73 2QW
10859	Castlemilk	906700260859	Unit 1, Castlemilk Arcade, Castlemilk, Glasgow	G45 9AA
10872	Livingston	135004695	Unit 15 & 16B, Regional Centre, Almondvale South, Livingston	EH54 6NQ
10880	Barrhead	131027979	20 Paisley Road, Barrhead 	G78 1NF
10882	Johnstone	123020370	11 Floors Street, Johnstone 	PA5 8QT
10883	Paisley	123055213	49A High Street, Paisley, Renfrewshire	PA1 2AN
10885	Renfrew		5 High Street, Renfrew 	PA4 8QL
10887	Wester Hailes, Edinburgh	906175737	Murrayburn House, Westside Plaza, Edinburgh	EH14 2SP
10891	Bathgate	200004134808	31-33 Whitburn Road, Bathgate, Bathgate, West Lothian	EH48 1HG
